Name,Email,Address,Institution
Julio Miles,seconds2037@protonmail.com,703 Lessing Freeway,Alphabet Inc.
玉子 久本,whereas1864@duck.com,山形市 77-7-20,Adidas
Marquis Smith,shower1837@duck.com,524 Long Motorway,Playmobil
Francisco Dunlap,bedroom1988@yandex.com,22 Exeter Field,Playmobil
Torrie May,mediterranean2046@outlook.com,980 La Avanzada Pine,Yamaha
Nadine Hellewege,prayers1968@live.com,Pinneberger Weg 1025,Adidas
松江 保,seo1832@duck.com,福岡市 73-6-61,Lufthansa
Robt Gamble,always1848@example.com,1285 Pizarro Row,Adidas
